{
  "defaultSeverity": "error",
  "extends": ["tslint:recommended"],
  "rules": {
    "quotemark": [true, "single", "avoid-escape", "avoid-template"],
    "member-access": false,
    "member-ordering": false,
    "ordered-imports": false,
    "indent": [true, "spaces", 2],
    "curly": [true, "ignore-same-line"],
    "no-implicit-dependencies": true,
    "no-empty-interface": false,
    "no-empty": false,
    "object-literal-sort-keys": false,
    "max-classes-per-file": false,
    "no-return-await": true,
    "match-default-export-name": true,
    "prefer-readonly": true,
    "arrow-parens": false,
    "array-type": [true, "array"],
    "object-literal-key-quotes": [true, "as-needed"]
  },
  "rulesDirectory": []
}
